<?xml version="1.0" encoding="UTF-8"?>
<svg width="20px" height="18px" viewBox="0 0 20 18" version="1.1" xmlns="http://www.w3.org/2000/svg" xmlns:xlink="http://www.w3.org/1999/xlink">
    <!-- Generator: Sketch 53.1 (72631) - https://sketchapp.com -->
    <title>uwaga</title>
    <desc>Created with Sketch.</desc>
    <defs>
        <path d="M19.7748959,15.4692071 C20.4157984,16.5939961 19.6113196,18 18.3312508,18 L1.66855079,18 C0.386016706,18 -0.414746784,16.5918164 0.224905675,15.4692071 L8.55635986,0.843222821 C9.19757482,-0.282093574 10.803581,-0.280054511 11.4436501,0.843222821 L19.7748959,15.4692071 Z M10.000005,12.4453126 C9.11788736,12.4453126 8.40278355,13.1693555 8.40278355,14.0625 C8.40278355,14.9556446 9.11788736,15.6796875 10.000005,15.6796875 C10.8821226,15.6796875 11.5972264,14.9556446 11.5972264,14.0625 C11.5972264,13.1693555 10.8821226,12.4453126 10.000005,12.4453126 Z M8.48358212,6.6323673 L8.74115144,11.4136173 C8.75320004,11.6373516 8.93590828,11.8125001 9.1571929,11.8125001 L10.8428171,11.8125001 C11.0641017,11.8125001 11.2468099,11.6373516 11.2588585,11.4136173 L11.5164278,6.6323673 C11.5294487,6.39070324 11.339414,6.18750011 11.1003864,6.18750011 L8.89958886,6.18750011 C8.6605612,6.18750011 8.47056129,6.39070324 8.48358212,6.6323673 L8.48358212,6.6323673 Z" id="path-1"></path>
    </defs>
    <g id="uwaga" stroke="none" stroke-width="1" fill="none" fill-rule="evenodd">
        <mask id="mask-2" fill="white">
            <use xlink:href="#path-1"></use>
        </mask>
        <use id="exclamation-triangle" fill="#F25749" fill-rule="nonzero" xlink:href="#path-1"></use>
    </g>
</svg>