<?xml version="1.0" encoding="UTF-8"?>
<svg width="40px" height="40px" viewBox="0 0 40 40" version="1.1" xmlns="http://www.w3.org/2000/svg" xmlns:xlink="http://www.w3.org/1999/xlink">
    <!-- Generator: Sketch 52.6 (67491) - http://www.bohemiancoding.com/sketch -->
    <title>szkielko</title>
    <desc>Created with Sketch.</desc>
    <g id="szkielko" stroke="none" stroke-width="1" fill="none" fill-rule="evenodd">
        <g id="Group" transform="translate(2.000000, 1.000000)" fill="#7CC576">
            <path d="M28.2034314,27.0836364 C30.6973039,24.2278788 32.1936275,20.4509091 32.1936275,16.3515152 C32.1936275,7.32363636 24.9840686,0 16.0968137,0 C7.20955882,0 0,7.32363636 0,16.3515152 C0,25.3793939 7.20955882,32.7030303 16.0968137,32.7030303 C19.9509804,32.7030303 23.4877451,31.3212121 26.2536765,29.0181818 L34.6875,37.5854545 C34.9595588,37.8618182 35.3223039,38 35.6397059,38 C35.9571078,38 36.3198529,37.8618182 36.5919118,37.5854545 C37.1360294,37.0327273 37.1360294,36.1575758 36.5919118,35.6509091 L28.2034314,27.0836364 Z M2.72058824,16.3515152 C2.72058824,8.84363636 8.70588235,2.76363636 16.0968137,2.76363636 C23.4877451,2.76363636 29.4730392,8.84363636 29.4730392,16.3515152 C29.4730392,23.8593939 23.442402,29.9393939 16.0968137,29.9393939 C8.75122549,29.9393939 2.72058824,23.8593939 2.72058824,16.3515152 Z" id="Shape" fill-rule="nonzero"></path>
            <path d="M23.5833333,10 L9.41666667,10 C8.61388889,10 8,10.4333333 8,11 C8,11.5666667 8.61388889,12 9.41666667,12 L23.5833333,12 C24.3861111,12 25,11.5666667 25,11 C25,10.4333333 24.3388889,10 23.5833333,10 Z" id="Path"></path>
            <path d="M23.5833333,16 L9.41666667,16 C8.61388889,16 8,16.4333333 8,17 C8,17.5666667 8.61388889,18 9.41666667,18 L23.5833333,18 C24.3861111,18 25,17.5666667 25,17 C25,16.4333333 24.3388889,16 23.5833333,16 Z" id="Path"></path>
            <path d="M16.65,20 L10.35,20 C9.585,20 9,20.4333333 9,21 C9,21.5666667 9.585,22 10.35,22 L16.65,22 C17.415,22 18,21.5666667 18,21 C18,20.4333333 17.37,20 16.65,20 Z" id="Path"></path>
        </g>
    </g>
</svg>