<?xml version="1.0" encoding="UTF-8"?>
<svg width="30px" height="29px" viewBox="0 0 30 29" version="1.1" xmlns="http://www.w3.org/2000/svg" xmlns:xlink="http://www.w3.org/1999/xlink">
    <!-- Generator: Sketch 54.1 (76490) - https://sketchapp.com -->
    <title>search</title>
    <desc>Created with Sketch.</desc>
    <g id="search" stroke="none" stroke-width="1" fill="none" fill-rule="evenodd">
        <g id="gridicons-search" transform="translate(1.000000, 1.000000)" fill="#1B54A5" fill-rule="nonzero">
            <g id="Icon">
                <path d="M27.86,24.78 L19.92284,16.84284 C22.9623949,12.2233435 22.0136096,6.05310807 17.7266258,2.5601993 C13.439642,-0.932709467 7.20495805,-0.615354214 3.29480192,3.29480192 C-0.615354214,7.20495805 -0.932709467,13.439642 2.5601993,17.7266258 C6.05310807,22.0136096 12.2233435,22.9623949 16.84284,19.92284 L24.78,27.86 L27.86,24.78 Z M3.22,10.92 C3.22,6.67422 6.67422,3.22 10.92,3.22 C15.16578,3.22 18.62,6.67422 18.62,10.92 C18.62,15.16578 15.16578,18.62 10.92,18.62 C6.67422,18.62 3.22,15.16578 3.22,10.92 Z" id="Icon-Shape"></path>
            </g>
        </g>
    </g>
</svg>